Solavax_mismatch_analysis.knit
…
# observations is the number of times the indicated read_base was observerved
colnames(df_pos) <- c("dataset","position", "ref_base", "read_base", "mismatch_count", "last_base", "next_base")

# acceptable bases (ignore Ns, etc)
acceptable_bases <- c("A", "C", "G", "T")

# only keep mismatches with reference and read base in A,C,G,T
df_pos <- df_pos %>% filter(ref_base %in% acceptable_bases & read_base %in% acceptable_bases) 
# make a new dataset that summarizes particular types of mismatches (or non mismatches)
# across all positions 
df <- df_pos %>% group_by(dataset, ref_base, read_base) %>% summarize(mismatch_count = sum(mismatch_count))
ungroup(df)

## # A tibble: 64 × 4
##    dataset ref_base read_base mismatch_count
##    <chr>   <chr>    <chr>              <int>
##  1 D_post  A        A              506133917
##  2 D_post  A        C                3537468
##  3 D_post  A        G                4297533
##  4 D_post  A        T                3496946
##  5 D_post  C        A                2465115
##  6 D_post  C        C              313029742
##  7 D_post  C        G                2259843
##  8 D_post  C        T                2477572
##  9 D_post  G        A                2551702
## 10 D_post  G        C                1863159
## # ℹ 54 more rows

# add a column: total_count, which is the # of times each base was observed in all the reads
# this will reflect G-C/A-T content of genome
# df <- df %>% group_by(dataset, read_base) %>% mutate(total_count = sum(mismatch_count))
df <- df %>% group_by(dataset, ref_base) %>% mutate(total_count = sum(mismatch_count))
ungroup(df)

## # A tibble: 64 × 5
##    dataset ref_base read_base mismatch_count total_count
##    <chr>   <chr>    <chr>              <int>       <int>
##  1 D_post  A        A              506133917   517465864
##  2 D_post  A        C                3537468   517465864
##  3 D_post  A        G                4297533   517465864
##  4 D_post  A        T                3496946   517465864
##  5 D_post  C        A                2465115   320232272
##  6 D_post  C        C              313029742   320232272
##  7 D_post  C        G                2259843   320232272
##  8 D_post  C        T                2477572   320232272
##  9 D_post  G        A                2551702   343111147
## 10 D_post  G        C                1863159   343111147
## # ℹ 54 more rows
…
Position-specific mismatch rate?

Goal: Assess mismatch frequencies at individual positions in the
genome, and plot averages across all positions.

df_pos <- df_pos %>% group_by(dataset, position) %>% mutate(coverage = sum(mismatch_count))
ungroup(df_pos)

## # A tibble: 474,903 × 8
##    dataset position ref_base read_base mismatch_count last_base next_base
##    <chr>      <int> <chr>    <chr>              <int> <chr>     <chr>    
##  1 D_post         1 A        A                     53 <NA>      T        
##  2 D_post         1 A        C                     27 <NA>      T        
##  3 D_post         1 A        G                     43 <NA>      T        
##  4 D_post         1 A        T                     12 <NA>      T        
##  5 D_post         2 T        A                     51 A         T        
##  6 D_post         2 T        C                     22 A         T        
##  7 D_post         2 T        G                     33 A         T        
##  8 D_post         2 T        T                     88 A         T        
##  9 D_post         3 T        A                     19 T         A        
## 10 D_post         3 T        C                     22 T         A        
## # ℹ 474,893 more rows
## # ℹ 1 more variable: coverage <int>
…
# Plot RNA hyper prep data
df_temp <- filter(df_pos_wide, str_detect(libprep, "RNA"))

# what are the actual stats?
df_temp <- df_temp %>% group_by(libprep, mismatch) %>% 
  mutate(median_post_pre = median(post_pre, na.rm=T),
         mean_post_pre = mean(post_pre, na.rm=T),
         stdev_post_pre = sd(post_pre, na.rm=T) )
ungroup(df_temp)

## # A tibble: 86,809 × 9
##    position libprep mismatch solavax_TRUE solavax_FALSE post_pre median_post_pre
##       <int> <chr>   <chr>           <dbl>         <dbl>    <dbl>           <dbl>
##  1       26 Lib pr… A->C           0.0182        0.0149    1.22            1.23 
##  2       26 Lib pr… A->G           0.0239        0.0139    1.72            0.933
##  3       26 Lib pr… A->T           0.0281        0.0149    1.89            1.09 
##  4       27 Lib pr… A->C           0.0398        0.0317    1.26            1.23 
##  5       27 Lib pr… A->G           0.0295        0.0103    2.88            0.933
##  6       27 Lib pr… A->T           0.0279        0.0261    1.07            1.09 
##  7       28 Lib pr… C->A           0.0268        0.0218    1.23            1.13 
##  8       28 Lib pr… C->G           0.0298        0.0201    1.48            1.28 
##  9       28 Lib pr… C->T           0.0469        0.0419    1.12            1.25 
## 10       29 Lib pr… A->C           0.0109        0.0112    0.973           1.23 
## # ℹ 86,799 more rows
## # ℹ 2 more variables: mean_post_pre <dbl>, stdev_post_pre <dbl>
…
